.........
----------------------------------------------------------------------
Ran 9 tests in 0.001s

OK
Name               Stmts   Miss Branch BrPart  Cover   Missing
--------------------------------------------------------------
Diplomacy.py          58      0     48      0   100%
TestDiplomacy.py      43      0      0      0   100%
--------------------------------------------------------------
TOTAL                101      0     48      0   100%
