..........
----------------------------------------------------------------------
Ran 10 tests in 0.002s

OK
Name               Stmts   Miss Branch BrPart  Cover   Missing
--------------------------------------------------------------
Diplomacy.py          61      0     54      4    97%   22->24, 31->17, 32->34, 5
3->58
TestDiplomacy.py      56      0      0      0   100%
--------------------------------------------------------------
TOTAL                117      0     54      4    98%
